<svg xmlns="http://www.w3.org/2000/svg" width="92.453" height="68.372" viewBox="0 0 92.453 68.372">
  <g id="t2" transform="translate(-0.768 -0.768)">
    <path id="Path" d="M0,0V10.873H8.828a9.948,9.948,0,0,1,14.778,0H50.945V0Z" transform="translate(4.833 41.586)" fill="#09343b"/>
    <path id="Path-2" data-name="Path" d="M30.318,21.61l-8.033-1.669L15.176,2.4A3.841,3.841,0,0,0,11.617,0H0V36.226H11.507a9.948,9.948,0,0,1,14.778,0h7.091V25.37a3.839,3.839,0,0,0-3.058-3.76Z" transform="translate(55.778 16.232)" fill="#1eb7b3"/>
    <path id="Path-3" data-name="Path" d="M50.945,3.624V40.818H0V3.624A3.624,3.624,0,0,1,3.624,0h43.7A3.624,3.624,0,0,1,50.945,3.624Z" transform="translate(4.833 0.768)" fill="#1eb7b3"/>
    <g id="Group" transform="translate(28.37 52.426)">
      <path id="Path-4" data-name="Path" d="M36.279,7.25c-.01-.184-.028-.366-.028-.553a9.933,9.933,0,0,1,2.6-6.7H0A9.933,9.933,0,0,1,2.6,6.7c0,.187-.018.369-.028.553Z" transform="translate(0.07 0.033)" fill="#ffd7e5"/>
      <path id="Path-5" data-name="Path" d="M7.531,0H0A9.933,9.933,0,0,1,2.6,6.7c0,.187-.018.369-.028.553H7.532a3.625,3.625,0,1,0,0-7.25Z" transform="translate(53.695 0.033)" fill="#ffd7e5"/>
    </g>
    <path id="Path-6" data-name="Path" d="M10.3,6.7a9.933,9.933,0,0,1,2.6-6.7H3.625a3.625,3.625,0,0,0,0,7.25h6.7C10.316,7.066,10.3,6.884,10.3,6.7Z" transform="translate(0.768 52.459)" fill="#fce013"/>
    <path id="Path-7" data-name="Path" d="M47.321,0H3.624A3.624,3.624,0,0,0,0,3.624v2.3A3.624,3.624,0,0,1,3.624,2.3h43.7a3.624,3.624,0,0,1,3.624,3.624v-2.3A3.624,3.624,0,0,0,47.321,0Z" transform="translate(4.833 0.768)" fill="#fff"/>
    <path id="Path-8" data-name="Path" d="M6.467,0H0V2.176a2.3,2.3,0,0,0,2.3,2.3H6.467Z" transform="translate(82.687 41.894)" fill="#d4fbff"/>
    <circle id="Oval" cx="14.546" cy="14.546" r="14.546" transform="translate(15.76 6.898)" fill="#fce013"/>
    <path id="Path-9" data-name="Path" d="M9.67,14.76a5.244,5.244,0,0,1-2.918,1.4v1.112a1.106,1.106,0,0,1-1.171,1.17,1.157,1.157,0,0,1-.839-.322,1.13,1.13,0,0,1-.332-.849V16.214a8.685,8.685,0,0,1-2.078-.449,6.93,6.93,0,0,1-1.766-.9,1.17,1.17,0,0,1-.439-.439A1.437,1.437,0,0,1,.3,12.955.884.884,0,0,1,1,12.584a1.957,1.957,0,0,1,.917.313,7.939,7.939,0,0,0,1.707.771,5.812,5.812,0,0,0,1.688.244A3.1,3.1,0,0,0,7.1,13.473a1.424,1.424,0,0,0,.624-1.239,1.01,1.01,0,0,0-.361-.8,2.586,2.586,0,0,0-.888-.488q-.526-.176-1.522-.449a20.25,20.25,0,0,1-2.381-.742,4.01,4.01,0,0,1-1.61-1.17A3.223,3.223,0,0,1,.292,6.439,3.717,3.717,0,0,1,1.414,3.726,5.269,5.269,0,0,1,4.351,2.282V1.17A1.13,1.13,0,0,1,4.682.322,1.154,1.154,0,0,1,5.522,0a1.15,1.15,0,0,1,.849.322,1.145,1.145,0,0,1,.322.849V2.244a7.31,7.31,0,0,1,3.3,1.327,1.185,1.185,0,0,1,.419.449,1.339,1.339,0,0,1,.127.6,1.321,1.321,0,0,1-.3.859.881.881,0,0,1-.693.371,1.311,1.311,0,0,1-.4-.058,2.8,2.8,0,0,1-.517-.253A9.078,9.078,0,0,0,7.19,4.781a4.194,4.194,0,0,0-1.552-.253A2.774,2.774,0,0,0,3.95,5a1.475,1.475,0,0,0-.634,1.249,1.15,1.15,0,0,0,.37.888,2.618,2.618,0,0,0,.937.537q.566.2,1.581.449a18.281,18.281,0,0,1,2.332.713A3.853,3.853,0,0,1,10.1,9.982,3.22,3.22,0,0,1,10.75,12.1,3.608,3.608,0,0,1,9.67,14.76Z" transform="translate(24.703 12.226)" fill="#fff"/>
    <circle id="Oval-2" data-name="Oval" cx="9.984" cy="9.984" r="9.984" transform="translate(11.066 49.172)" fill="#09343b"/>
    <circle id="Oval-3" data-name="Oval" cx="4.411" cy="4.411" r="4.411" transform="translate(16.639 54.745)" fill="#fff"/>
    <circle id="Oval-4" data-name="Oval" cx="9.984" cy="9.984" r="9.984" transform="translate(64.691 49.172)" fill="#09343b"/>
    <circle id="Oval-5" data-name="Oval" cx="4.411" cy="4.411" r="4.411" transform="translate(70.264 54.745)" fill="#fff"/>
    <path id="Path-10" data-name="Path" d="M6.144,12.89H16.6L11.372,0H0V6.746A6.144,6.144,0,0,0,6.144,12.89Z" transform="translate(60.415 20.688)" fill="#d4fbff"/>
    <path id="Path-11" data-name="Path" d="M4.9,0H.768a.768.768,0,0,0,0,1.536H4.9A.768.768,0,1,0,4.9,0Z" transform="translate(37.154 40.818)" fill="#09343b"/>
    <path id="Shape" d="M15.313,30.627A15.313,15.313,0,1,1,30.627,15.313,15.331,15.331,0,0,1,15.313,30.627Zm-6.9-8.693a.769.769,0,0,1,.543,1.312L6.4,25.8A13.761,13.761,0,0,0,25.8,6.4L23.033,9.166A.768.768,0,0,1,21.947,8.08l2.79-2.79A13.756,13.756,0,0,0,5.291,24.736L7.868,22.16A.763.763,0,0,1,8.411,21.934Z" transform="translate(14.992 6.131)" fill="#09343b"/>
    <path id="Shape-2" data-name="Shape" d="M5.179,10.357a5.179,5.179,0,1,1,5.179-5.179A5.184,5.184,0,0,1,5.179,10.357Zm0-8.821A3.642,3.642,0,1,0,8.821,5.179,3.646,3.646,0,0,0,5.179,1.536Z" transform="translate(15.871 53.977)" fill="#09343b"/>
    <path id="Shape-3" data-name="Shape" d="M5.179,10.357a5.179,5.179,0,1,1,5.179-5.179A5.184,5.184,0,0,1,5.179,10.357Zm0-8.821A3.642,3.642,0,1,0,8.821,5.179,3.646,3.646,0,0,0,5.179,1.536Z" transform="translate(69.496 53.977)" fill="#09343b"/>
    <path id="Path-12" data-name="Path" d="M1.075,2.15H5.431a1.075,1.075,0,0,0,0-2.15H1.075a1.075,1.075,0,0,0,0,2.15Z" transform="translate(60.415 37.415)" fill="#09343b"/>
  </g>
</svg>
