<svg xmlns="http://www.w3.org/2000/svg" width="95.029" height="61.07" viewBox="0 0 95.029 61.07">
  <g id="t3" transform="translate(-2.348 14.292) rotate(-16)">
    <path id="Path" d="M8.6,20.352H22.6a1.536,1.536,0,0,0,1.166-2.536L8.926.536A1.536,1.536,0,0,0,7.761,0H1.538A1.536,1.536,0,0,0,.116,2.116L7.18,19.4A1.538,1.538,0,0,0,8.6,20.352Z" transform="translate(26.861 0.767)" fill="#1eb7b3"/>
    <path id="Path-2" data-name="Path" d="M4.077,3.918a.614.614,0,0,1,.569-.846H11.1L8.926.536A1.536,1.536,0,0,0,7.761,0H1.538A1.536,1.536,0,0,0,.116,2.116L7.18,19.4a1.538,1.538,0,0,0,1.422.956H10.8Z" transform="translate(26.861 0.767)" fill="#1eb7b3"/>
    <path id="Shape" d="M9.369,21.886a2.3,2.3,0,0,1-2.133-1.432L.172,3.174A2.3,2.3,0,0,1,2.306,0H8.528a2.3,2.3,0,0,1,1.748.8L25.11,18.083a2.3,2.3,0,0,1-1.748,3.8Z" transform="translate(26.096 0)" fill="#09343b"/>
    <path id="Path-3" data-name="Path" d="M0,3.073V24.109a3.071,3.071,0,0,0,3.072,3.072H77.009a3.02,3.02,0,0,0,3.019-3.02v-1.51a15.1,15.1,0,0,0-15.1-15.1H15.1L11.451,1.467A3.021,3.021,0,0,0,8.861,0H3.072A3.074,3.074,0,0,0,0,3.073Z" transform="translate(0.768 9.286)" fill="#1eb7b3"/>
    <path id="Shape-2" data-name="Shape" d="M3.84,28.716A3.846,3.846,0,0,1,0,24.876V3.84A3.846,3.846,0,0,1,3.84,0H9.627a3.811,3.811,0,0,1,3.249,1.839L16.3,7.549H65.7A15.886,15.886,0,0,1,81.564,23.416v1.51a3.792,3.792,0,0,1-3.787,3.79Z" transform="translate(0 8.52)" fill="#09343b"/>
    <path id="Path-4" data-name="Path" d="M2.59,1.467,6.239,7.551H15.3L11.649,1.467A3.021,3.021,0,0,0,9.059,0H0A3.018,3.018,0,0,1,2.59,1.467Z" transform="translate(9.628 9.288)" fill="#d7bf0e"/>
    <path id="Shape-3" data-name="Shape" d="M16.067,9.087H7.007a.766.766,0,0,1-.66-.373L2.7,2.63A2.263,2.263,0,0,0,.768,1.536.768.768,0,0,1,.768,0H9.827a3.812,3.812,0,0,1,3.249,1.839l3.649,6.084a.77.77,0,0,1-.659,1.165ZM3.812,1.536c.069.092.137.194.2.3L7.441,7.551h7.269L11.758,2.63A2.263,2.263,0,0,0,9.827,1.536Z" transform="translate(8.861 8.52)" fill="#09343b"/>
    <path id="Path-5" data-name="Path" d="M8.8,0H0A15.1,15.1,0,0,1,15.1,15.1v1.51a3.02,3.02,0,0,1-3.019,3.02h9.007a3.071,3.071,0,0,0,3.072-3.072v-1.2A15.361,15.361,0,0,0,8.8,0Z" transform="translate(65.696 16.837)" fill="#fce013"/>
    <path id="Shape-4" data-name="Shape" d="M21.856,21.165H12.849a.768.768,0,1,1,0-1.536A2.254,2.254,0,0,0,15.1,17.376V15.867A14.348,14.348,0,0,0,.768,1.536.768.768,0,0,1,.768,0h8.8A16.146,16.146,0,0,1,25.7,16.128v1.2A3.845,3.845,0,0,1,21.856,21.165ZM7.578,1.536h0a15.934,15.934,0,0,1,6.536,5.753,15.788,15.788,0,0,1,2.523,8.576v1.509a3.767,3.767,0,0,1-.743,2.253h5.963a2.307,2.307,0,0,0,2.3-2.3v-1.2A14.608,14.608,0,0,0,9.568,1.536Z" transform="translate(64.928 16.071)" fill="#09343b"/>
    <path id="Path-6" data-name="Path" d="M79.082,17.431a15.091,15.091,0,0,0-14.154-9.88H15.1L11.451,1.467A3.021,3.021,0,0,0,8.861,0H3.072A3.071,3.071,0,0,0,0,3.072V17.429H79.082Z" transform="translate(0.768 9.288)" fill="#fce013"/>
    <path id="Shape-5" data-name="Shape" d="M79.85,18.967H.768A.769.769,0,0,1,0,18.2V3.84A3.845,3.845,0,0,1,3.84,0H9.627a3.812,3.812,0,0,1,3.249,1.839L16.3,7.549H65.7A15.923,15.923,0,0,1,80.571,17.932a.77.77,0,0,1-.721,1.035ZM3.84,1.536a2.307,2.307,0,0,0-2.3,2.3V17.43H78.7a14.373,14.373,0,0,0-13-8.343H15.869a.766.766,0,0,1-.66-.373L11.56,2.63A2.263,2.263,0,0,0,9.629,1.536Z" transform="translate(0 8.52)" fill="#09343b"/>
    <path id="Path-7" data-name="Path" d="M8.6,0H22.6a1.536,1.536,0,0,1,1.166,2.536L8.926,19.816a1.536,1.536,0,0,1-1.166.536H1.538A1.536,1.536,0,0,1,.116,18.235L7.18.956A1.538,1.538,0,0,1,8.6,0Z" transform="translate(26.861 31.582)" fill="#1eb7b3"/>
    <path id="Path-8" data-name="Path" d="M3.188,18.235,10.252.956A1.538,1.538,0,0,1,11.674,0H8.6A1.538,1.538,0,0,0,7.18.956L.116,18.235a1.535,1.535,0,0,0,1.422,2.117H4.61A1.536,1.536,0,0,1,3.188,18.235Z" transform="translate(26.861 31.582)" fill="#1eb7b3"/>
    <path id="Shape-6" data-name="Shape" d="M8.528,21.89H2.306A2.306,2.306,0,0,1,.172,18.713L7.237,1.433A2.3,2.3,0,0,1,9.37,0H23.363a2.283,2.283,0,0,1,2.093,1.343A2.278,2.278,0,0,1,25.111,3.8L10.276,21.084A2.3,2.3,0,0,1,8.528,21.89Zm.84-20.353a.766.766,0,0,0-.711.478L1.593,19.3A.768.768,0,0,0,2.3,20.354H8.527a.766.766,0,0,0,.582-.267L23.944,2.806a.769.769,0,0,0-.582-1.269Z" transform="translate(26.095 30.812)" fill="#09343b"/>
    <path id="Path-9" data-name="Path" d="M11.355,0H0V5.917H15.338A15.1,15.1,0,0,0,11.355,0Z" transform="translate(64.531 20.8)" fill="#fff"/>
    <path id="Shape-7" data-name="Shape" d="M16.106,7.454H.768A.769.769,0,0,1,0,6.686V.768A.769.769,0,0,1,.768,0H12.123a.772.772,0,0,1,.518.2,15.961,15.961,0,0,1,4.185,6.218.768.768,0,0,1-.72,1.035ZM1.535,1.536V5.918H14.955a14.309,14.309,0,0,0-3.137-4.382Z" transform="translate(63.763 20.032)" fill="#09343b"/>
    <path id="Path-10" data-name="Path" d="M0,0H12.48V1.536H0Z" transform="translate(10.849 50.238)" fill="#09343b"/>
    <path id="Path-11" data-name="Path" d="M0,0H9.264V1.536H0Z" transform="translate(14.063 45.022)" fill="#09343b"/>
    <path id="Path-12" data-name="Path" d="M0,0H12.48V1.536H0Z" transform="translate(10.849 0.799)" fill="#09343b"/>
  </g>
</svg>
